<svg width="1000" height="1000" viewBox="0 0 1000 1000" fill="none" xmlns="http://www.w3.org/2000/svg">
<path d="M536.542 146.63L747.392 326.037L744.67 659.122L533.82 479.715L536.542 146.63Z" fill="#FFC400"/>
<path d="M254.768 341.113L465.669 520.622L462.947 853.706L252.046 674.198L254.768 341.113Z" fill="#FFE57F"/>
<path d="M254.768 341.15L533.81 479.619L744.713 659.092L465.67 520.621L254.768 341.15Z" fill="#FFD740"/>
</svg>
